Chuyi’s Website - Data analysis
…
The state have more than one name and meanings, so we have over 50 row in our original dataset.

state_land=data_final%>%
  select(state, land_area_km2)%>%
  rename(area=land_area_km2)%>%
  mutate(area_type="Land")
state_water=data_final%>%
  select(state, water_area_km2)%>%
  rename(area=water_area_km2)%>%
  mutate(area_type="Water")
water_land=state_water%>%
  bind_rows(state_land)%>%
  print()

# A tibble: 100 × 3
   state         area area_type
   <chr>        <dbl> <chr>    
 1 Alabama       4597 Water    
 2 Alaska      245384 Water    
 3 Arizona       1026 Water    
 4 Arkansas      2961 Water    
 5 California   20501 Water    
 6 Colorado      1170 Water    
 7 Connecticut   1816 Water    
 8 Delaware      1399 Water    
 9 Florida      31424 Water    
10 Georgia       4951 Water    
# ℹ 90 more rows
…
